\relax 
\providecommand\hyper@newdestlabel[2]{}
\providecommand\HyperFirstAtBeginDocument{\AtBeginDocument}
\HyperFirstAtBeginDocument{\ifx\hyper@anchor\@undefined
\global\let\oldcontentsline\contentsline
\gdef\contentsline#1#2#3#4{\oldcontentsline{#1}{#2}{#3}}
\global\let\oldnewlabel\newlabel
\gdef\newlabel#1#2{\newlabelxx{#1}#2}
\gdef\newlabelxx#1#2#3#4#5#6{\oldnewlabel{#1}{{#2}{#3}}}
\AtEndDocument{\ifx\hyper@anchor\@undefined
\let\contentsline\oldcontentsline
\let\newlabel\oldnewlabel
\fi}
\fi}
\global\let\hyper@last\relax 
\gdef\HyperFirstAtBeginDocument#1{#1}
\providecommand\HyField@AuxAddToFields[1]{}
\providecommand\HyField@AuxAddToCoFields[2]{}
\citation{sinatra}
\@writefile{toc}{\contentsline {section}{\numberline {1}Overview}{2}{section.1}}
\@writefile{toc}{\contentsline {section}{\numberline {2}Runtime}{2}{section.2}}
\@writefile{toc}{\contentsline {section}{\numberline {3}Design}{2}{section.3}}
\@writefile{toc}{\contentsline {subsection}{\numberline {3.1}Database connectivity}{2}{subsection.3.1}}
\newlabel{sec:db}{{3.1}{2}{Database connectivity}{subsection.3.1}{}}
\@writefile{toc}{\contentsline {subsection}{\numberline {3.2}Assets}{3}{subsection.3.2}}
\@writefile{toc}{\contentsline {subsection}{\numberline {3.3}Routing}{3}{subsection.3.3}}
\newlabel{sec:controllers}{{3.3}{3}{Routing}{subsection.3.3}{}}
\@writefile{toc}{\contentsline {subsection}{\numberline {3.4}Sessions}{3}{subsection.3.4}}
\@writefile{toc}{\contentsline {subsection}{\numberline {3.5}Rendering}{4}{subsection.3.5}}
\citation{googlemaps}
\@writefile{toc}{\contentsline {section}{\numberline {4}Modifications}{5}{section.4}}
\@writefile{toc}{\contentsline {section}{\numberline {5}Functionality}{5}{section.5}}
\@writefile{toc}{\contentsline {subsection}{\numberline {5.1}Searching}{5}{subsection.5.1}}
\@writefile{toc}{\contentsline {subsection}{\numberline {5.2}Google Maps}{5}{subsection.5.2}}
\@writefile{toc}{\contentsline {subsection}{\numberline {5.3}Registration}{5}{subsection.5.3}}
\@writefile{toc}{\contentsline {subsection}{\numberline {5.4}Admin Panel}{5}{subsection.5.4}}
\@writefile{toc}{\contentsline {subsection}{\numberline {5.5}Cart}{5}{subsection.5.5}}
\bibcite{googlemaps}{1}
\bibcite{sinatra}{2}
\@writefile{toc}{\contentsline {section}{\numberline {6}Conclusion}{6}{section.6}}
\@writefile{toc}{\contentsline {section}{\numberline {7}Appendix}{6}{section.7}}
\@writefile{toc}{\contentsline {subsection}{\numberline {7.1}Functionality Screenshots}{6}{subsection.7.1}}
\@writefile{lof}{\contentsline {figure}{\numberline {1}{\ignorespaces The home page}}{6}{figure.1}}
\newlabel{img:home}{{1}{6}{The home page}{figure.1}{}}
\@writefile{lof}{\contentsline {figure}{\numberline {2}{\ignorespaces The restaurants page}}{7}{figure.2}}
\newlabel{img:restaurants}{{2}{7}{The restaurants page}{figure.2}{}}
\@writefile{lof}{\contentsline {figure}{\numberline {3}{\ignorespaces The menu page}}{7}{figure.3}}
\newlabel{img:restaurant}{{3}{7}{The menu page}{figure.3}{}}
\@writefile{lof}{\contentsline {figure}{\numberline {4}{\ignorespaces The food page, with a user search of "C"}}{8}{figure.4}}
\newlabel{img:food}{{4}{8}{The food page, with a user search of "C"}{figure.4}{}}
\@writefile{lof}{\contentsline {figure}{\numberline {5}{\ignorespaces The login page}}{8}{figure.5}}
\newlabel{img:login}{{5}{8}{The login page}{figure.5}{}}
\@writefile{lof}{\contentsline {figure}{\numberline {6}{\ignorespaces The register page}}{9}{figure.6}}
\newlabel{img:register}{{6}{9}{The register page}{figure.6}{}}
\@writefile{lof}{\contentsline {figure}{\numberline {7}{\ignorespaces The result of a user registering}}{9}{figure.7}}
\newlabel{img:register_effect}{{7}{9}{The result of a user registering}{figure.7}{}}
\@writefile{lof}{\contentsline {figure}{\numberline {8}{\ignorespaces The orders page}}{10}{figure.8}}
\newlabel{img:orders}{{8}{10}{The orders page}{figure.8}{}}
\@writefile{lof}{\contentsline {figure}{\numberline {9}{\ignorespaces The cart page}}{10}{figure.9}}
\newlabel{img:cart}{{9}{10}{The cart page}{figure.9}{}}
\@writefile{lof}{\contentsline {figure}{\numberline {10}{\ignorespaces The checkout effect on the database}}{11}{figure.10}}
\newlabel{img:cart_effect}{{10}{11}{The checkout effect on the database}{figure.10}{}}
\newlabel{LastPage}{{}{11}{}{page.11}{}}
\xdef\lastpage@lastpage{11}
\xdef\lastpage@lastpageHy{11}
\gdef\minted@oldcachelist{,
  default-pyg-prefix.pygstyle,
  default.pygstyle,
  79CFBD4A6292CA34F1426E030F54FB33EAD440A79C3E84ACDCEF803F7E227B29.pygtex,
  74C30BF34D31E88F86F451FB799C1580EAD440A79C3E84ACDCEF803F7E227B29.pygtex,
  9C724ACC8364442B0603A37C3C18E79D8FBA38F8DB6A0ED3F22451B6B566D8CA.pygtex,
  B511D7BA2F984D62D501B6F162E780FCC429381517BC1B0A369CB904DCF6CB3D.pygtex,
  4242DBECAA53C1419612DD1748A469528C5DF68080F360D7CF4EA042EA942E46.pygtex,
  6E709CE3706A5B7A400B7A8F9C50CBDAA01940499247130F04F5227C8B62E2D2.pygtex,
  3B5510C78E9DC6CA4FB6A3B0A28183049CCB4D93E496EEC2E21723FD9840A40F.pygtex}
